dashboard
…
## Getting data, page 6

Data cleaning

nyc_inspections_cleaned = nyc_inspections %>%
  mutate(score = as.numeric(score), 
         inspection_date = as.Date(inspection_date),
         boro = as.factor(boro)) %>%
  select(boro,inspection_date,score) %>%
  filter(!is.na(score) & !is.na(boro) & !is.na(inspection_date)) %>%
  distinct()%>%
  sample_n(1000)
nyc_inspections_cleaned

## # A tibble: 1,000 × 3
##    boro      inspection_date score
##    <fct>     <date>          <dbl>
##  1 Bronx     2018-03-05         13
##  2 Manhattan 2024-02-16         10
##  3 Manhattan 2023-04-12          9
##  4 Manhattan 2021-12-14          9
##  5 Brooklyn  2022-02-22         14
##  6 Manhattan 2024-03-14          3
##  7 Queens    2022-11-17         13
##  8 Manhattan 2022-02-22          9
##  9 Manhattan 2023-10-31         38
## 10 Brooklyn  2024-05-17         36
## # ℹ 990 more rows
…
